{"slot": "cmt",
 "projects": [{"name": "LCGCMT",
               "version": "preview"},
              {"name": "Gaudi",
               "version": "HEAD"},
              {"name": "Online",
               "version": "HEAD"},
              {"name": "LHCb",
               "version": "HEAD"},
              {"name": "Lbcom",
               "version": "HEAD"},
              {"name": "Rec",
               "version": "HEAD"},
              {"name": "Brunel",
               "version": "HEAD"},
              {"name": "NewProj",
               "version": "HEAD"}]
}
